[
  {
    "node_type":"manager",
    "region":"sfo2",
    "name":"demo1-node-01-app-layer",
    "snapshot_id":"50660299",
    "size":"s-1vcpu-2gb",
    "tags":"demo1-setup,demo1-app-layer",
    "labels":"demo1-manager"
  },
  {
    "node_type":"manager",
    "region":"sfo2",
    "name":"demo1-node-02-app-layer",
    "snapshot_id":"50660299",
    "size":"s-1vcpu-2gb",
    "tags":"demo1-setup,demo1-db-layer",
    "labels":"demo1-influxdb"
  },
  {
    "node_type":"manager",
    "region":"sfo2",
    "name":"demo1-node-03-app-layer",
    "snapshot_id":"50660299",
    "size":"s-1vcpu-2gb",
    "tags":"demo1-setup,demo1-db-layer",
    "labels":"demo1-mariadb"
  },

  {
    "node_type":"worker",
    "region":"sfo2",
    "name":"demo1-node-04-app-layer",
    "snapshot_id":"50660299",
    "size":"s-4vcpu-8gb",
    "tags":"demo1-setup,demo1-app-layer",
    "labels":"demo1-pylytics"
  },
  {
    "node_type":"worker",
    "region":"sfo2",
    "name":"demo1-node-05-app-layer",
    "snapshot_id":"50660299",
    "size":"s-4vcpu-8gb",
    "tags":"demo1-setup,demo1-app-layer",
    "labels":"demo1-pylytics"
  },
  {
    "node_type":"worker",
    "region":"sfo2",
    "name":"demo1-node-06-app-layer",
    "snapshot_id":"50660299",
    "size":"s-2vcpu-4gb",
    "tags":"demo1-setup,demo1-app-layer",
    "labels":"demo1-analytics-service"
  },
  {
    "node_type":"worker",
    "region":"sfo2",
    "name":"demo1-node-07-app-layer",
    "snapshot_id":"50660299",
    "size":"s-2vcpu-4gb",
    "tags":"demo1-setup,demo1-app-layer",
    "labels":"demo1-analytics-service"
  },
  {
    "node_type":"worker",
    "region":"sfo2",
    "name":"demo1-node-08-app-layer",
    "snapshot_id":"50660299",
    "size":"s-2vcpu-4gb",
    "tags":"demo1-setup,demo1-app-layer",
    "labels":"demo1-ui-data-service,demo1-infra-service"
  },
  {
    "node_type":"worker",
    "region":"sfo2",
    "name":"demo1-node-09-app-layer",
    "snapshot_id":"50660299",
    "size":"s-2vcpu-4gb",
    "tags":"demo1-setup,demo1-app-layer",
    "labels":"demo1-ui-data-service,demo1-infra-service"
  },
  {
    "node_type":"worker",
    "region":"sfo2",
    "name":"demo1-node-10-app-layer",
    "snapshot_id":"50660299",
    "size":"s-2vcpu-4gb",
    "tags":"demo1-setup,demo1-app-layer",
    "labels":"demo1-ml-api"
  },
  {
    "node_type":"worker",
    "region":"sfo2",
    "name":"demo1-node-11-app-layer",
    "snapshot_id":"50660299",
    "size":"s-2vcpu-4gb",
    "tags":"demo1-setup,demo1-app-layer",
    "labels":"demo1-ml-api"
  },
  {
    "node_type":"worker",
    "region":"sfo2",
    "name":"demo1-node-12-app-layer",
    "snapshot_id":"50660299",
    "size":"s-2vcpu-4gb",
    "tags":"demo1-setup,demo1-app-layer",
    "labels":"demo1-camel-analytics,demo1-camel-prov,demo1-camel-service,demo1-infra-prov-service"
  },
  {
    "node_type":"worker",
    "region":"sfo2",
    "name":"demo1-node-13-app-layer",
    "snapshot_id":"50660299",
    "size":"s-1vcpu-2gb",
    "tags":"demo1-setup,demo1-app-layer",
    "labels":"demo1-angular-app"
  },
  {
    "node_type":"worker",
    "region":"sfo2",
    "name":"demo1-node-14-app-layer",
    "snapshot_id":"50660299",
    "size":"s-2vcpu-4gb",
    "tags":"demo1-setup,demo1-app-layer,demo1-mon",
    "labels":"demo1-elk,demo1-mon"
  },
  {
    "node_type":"worker",
    "region":"sfo2",
    "name":"demo1-node-15-app-layer",
    "snapshot_id":"50660299",
    "size":"s-2vcpu-4gb",
    "tags":"demo1-setup,demo1-app-layer,demo1-mon",
    "labels":"demo1-elk,demo1-mon"
  }


]