[
  {
    "targets": [ "http://10.138.218.21:8000/health" ],
    "labels": {
      "instance": "pylytics",
      "appName": "pylytics"
    }
  },
  {
    "targets": [ "http://10.138.218.21:8003/health" ],
    "labels": {
      "instance": "blulytics",
      "appName": "blulytics"
    }
  }
]
