{
  "reportModels":[
    {
      "description":"",
      "reportType":"jmeter",
      "reportModelVersion": "1.0",
      "plugins":[
        {
          "type":"log",
          "dbStores":[
            {
              "dbStoreType":"influxdb",
              "dbStoreTableName":"jmeter_log_derived_tps",
              "derivedDataType":"tps",

              "dbStoreColumns":[
                {
                  "columnName":"timestamp",
                  "columnType":"time",
                  "dataType":"long",
                  "provider":"jmeter-log",
                  "providerMap":{
                    "columnName":"time",
                    "converterClass":"com.asklytics.data.transformer.db.manager.influxdb.persistor.converter.SimpleConverter",
                    "dataType":"long"
                  }
                },
                {
                  "columnName":"allthreads",
                  "columnType":"field",
                  "dataType":"decimal",
                  "provider":"jmeter-log",
                  "providerMap":{
                    "columnName":"allthreads",
                    "converterClass":"com.asklytics.data.transformer.db.manager.influxdb.persistor.converter.SimpleConverter",
                    "dataType":"decimal"
                  }
                },
                {
                  "columnName":"allthreads-tag",
                  "columnType":"tag",
                  "dataType":"decimal",
                  "provider":"jmeter-log",
                  "providerMap":{
                    "columnName":"allthreads",
                    "converterClass":"com.asklytics.data.transformer.db.manager.influxdb.persistor.converter.SimpleConverter",
                    "dataType":"decimal"
                  }
                },
                {
                  "columnName":"elapsed",
                  "columnType":"field",
                  "dataType":"decimal",
                  "provider":"jmeter-log",
                  "providerMap":{
                    "columnName":"elapsed",
                    "converterClass":"com.asklytics.data.transformer.db.manager.influxdb.persistor.converter.SimpleConverter",
                    "dataType":"decimal"
                  }
                },
                {
                  "columnName":"elapsed-tag",
                  "columnType":"tag",
                  "dataType":"decimal",
                  "provider":"jmeter-log",
                  "providerMap":{
                    "columnName":"elapsed",
                    "converterClass":"com.asklytics.data.transformer.db.manager.influxdb.persistor.converter.SimpleConverter",
                    "dataType":"decimal"
                  }
                },
                {
                  "columnName":"tps",
                  "columnType":"field",
                  "dataType":"decimal",
                  "provider":"jmeter-log",
                  "providerMap":{
                    "columnName":"tps",
                    "converterClass":"com.asklytics.data.transformer.db.manager.influxdb.persistor.converter.SimpleConverter",
                    "dataType":"decimal"
                  }
                },
                {
                  "columnName":"label",
                  "columnType":"tag",
                  "dataType":"string",
                  "provider":"jmeter-log",
                  "required":true,
                  "providerMap":{
                    "columnName":"label",
                    "converterClass":"com.asklytics.data.transformer.db.manager.influxdb.persistor.converter.SimpleConverter",
                    "dataType":"string"
                  }
                },
                {
                  "columnName":"status",
                  "columnType":"tag",
                  "dataType":"string",
                  "provider":"jmeter-log",
                  "providerMap":{
                    "columnName":"status",
                    "converterClass":"com.asklytics.data.transformer.db.manager.influxdb.persistor.converter.SimpleConverter",
                    "dataType":"string"
                  }
                },
                {
                  "columnName":"tenant_id",
                  "columnType":"field",
                  "dataType":"integer",
                  "provider":"asklytics",
                  "providerMap":{
                    "columnName":"tenant_id",
                    "converterClass":"com.asklytics.data.transformer.db.manager.influxdb.persistor.converter.SimpleConverter",
                    "dataType":"integer"
                  }
                },
                {
                  "columnName":"scenario_id",
                  "columnType":"tag",
                  "dataType":"integer",
                  "provider":"asklytics",
                  "providerMap":{
                    "columnName":"scenario_id",
                    "converterClass":"com.asklytics.data.transformer.db.manager.influxdb.persistor.converter.SimpleConverter",
                    "dataType":"integer"
                  }
                },
                {
                  "columnName":"analysis_id",
                  "columnType":"tag",
                  "dataType":"integer",
                  "provider":"asklytics",
                  "providerMap":{
                    "columnName":"analysis_id",
                    "converterClass":"com.asklytics.data.transformer.db.manager.influxdb.persistor.converter.SimpleConverter",
                    "dataType":"integer"
                  }
                },
                {
                  "columnName":"plugin",
                  "columnType":"field",
                  "dataType":"integer",
                  "provider":"asklytics",
                  "providerMap":{
                    "columnName":"plugin",
                    "converterClass":"com.asklytics.data.transformer.db.manager.influxdb.persistor.converter.SimpleConverter",
                    "dataType":"integer"
                  }
                },
                {
                  "columnName":"collection_id",
                  "columnType":"tag",
                  "dataType":"integer",
                  "provider":"asklytics",
                  "providerMap":{
                    "columnName":"collection_id",
                    "converterClass":"com.asklytics.data.transformer.db.manager.influxdb.persistor.converter.SimpleConverter",
                    "dataType":"integer"
                  }
                },
                {
                  "columnName":"project_id",
                  "columnType":"tag",
                  "dataType":"integer",
                  "provider":"asklytics",
                  "providerMap":{
                    "columnName":"project_id",
                    "converterClass":"com.asklytics.data.transformer.db.manager.influxdb.persistor.converter.SimpleConverter",
                    "dataType":"integer"
                  }
                },
                {
                  "columnName":"test_id",
                  "columnType":"tag",
                  "dataType":"integer",
                  "provider":"asklytics",
                  "providerMap":{
                    "columnName":"test_id",
                    "converterClass":"com.asklytics.data.transformer.db.manager.influxdb.persistor.converter.SimpleConverter",
                    "dataType":"integer"
                  }
                },
                {
                  "columnName":"session_id",
                  "columnType":"tag",
                  "dataType":"integer",
                  "provider":"asklytics",
                  "providerMap":{
                    "columnName":"session_id",
                    "converterClass":"com.asklytics.data.transformer.db.manager.influxdb.persistor.converter.SimpleConverter",
                    "dataType":"integer"
                  }
                },
                {
                  "columnName":"source",
                  "columnType":"tag",
                  "dataType":"string",
                  "provider":"asklytics",
                  "providerMap":{
                    "columnName":"source",
                    "converterClass":"com.asklytics.data.transformer.db.manager.influxdb.persistor.converter.SimpleConverter",
                    "dataType":"string"
                  }
                },
                {
                  "columnName":"internal_tags",
                  "columnType":"tag",
                  "dataType":"string",
                  "provider":"asklytics",
                  "providerMap":{
                    "columnName":"internal_tags",
                    "converterClass":"com.asklytics.data.transformer.db.manager.influxdb.persistor.converter.SimpleConverter",
                    "dataType":"string"
                  }
                },
                {
                  "columnName":"tags",
                  "columnType":"tag",
                  "dataType":"string",
                  "provider":"asklytics",
                  "providerMap":{
                    "columnName":"tags",
                    "converterClass":"com.asklytics.data.transformer.db.manager.influxdb.persistor.converter.SimpleConverter",
                    "dataType":"string"
                  }
                }
              ]
            },
            {
              "dbStoreType":"influxdb",
              "dbStoreTableName":"jmeter_log_derived_tps_success_or_error",
              "derivedDataType":"tps_success",

              "dbStoreColumns":[
                {
                  "columnName":"timestamp",
                  "columnType":"time",
                  "dataType":"long",
                  "provider":"jmeter-log",
                  "providerMap":{
                    "columnName":"time",
                    "converterClass":"com.asklytics.data.transformer.db.manager.influxdb.persistor.converter.SimpleConverter",
                    "dataType":"long"
                  }
                },
                {
                  "columnName":"allthreads",
                  "columnType":"field",
                  "dataType":"decimal",
                  "provider":"jmeter-log",
                  "providerMap":{
                    "columnName":"allthreads",
                    "converterClass":"com.asklytics.data.transformer.db.manager.influxdb.persistor.converter.SimpleConverter",
                    "dataType":"decimal"
                  }
                },
                {
                  "columnName":"allthreads-tag",
                  "columnType":"tag",
                  "dataType":"decimal",
                  "provider":"jmeter-log",
                  "providerMap":{
                    "columnName":"allthreads",
                    "converterClass":"com.asklytics.data.transformer.db.manager.influxdb.persistor.converter.SimpleConverter",
                    "dataType":"decimal"
                  }
                },
                {
                  "columnName":"elapsed",
                  "columnType":"field",
                  "dataType":"decimal",
                  "provider":"jmeter-log",
                  "providerMap":{
                    "columnName":"elapsed",
                    "converterClass":"com.asklytics.data.transformer.db.manager.influxdb.persistor.converter.SimpleConverter",
                    "dataType":"decimal"
                  }
                },
                {
                  "columnName":"elapsed-tag",
                  "columnType":"tag",
                  "dataType":"decimal",
                  "provider":"jmeter-log",
                  "providerMap":{
                    "columnName":"elapsed",
                    "converterClass":"com.asklytics.data.transformer.db.manager.influxdb.persistor.converter.SimpleConverter",
                    "dataType":"decimal"
                  }
                },
                {
                  "columnName":"tps",
                  "columnType":"field",
                  "dataType":"decimal",
                  "provider":"jmeter-log",
                  "providerMap":{
                    "columnName":"tps",
                    "converterClass":"com.asklytics.data.transformer.db.manager.influxdb.persistor.converter.SimpleConverter",
                    "dataType":"decimal"
                  }
                },
                {
                  "columnName":"status",
                  "columnType":"field",
                  "dataType":"string",
                  "provider":"jmeter-log",
                  "providerMap":{
                    "columnName":"status",
                    "converterClass":"com.asklytics.data.transformer.db.manager.influxdb.persistor.converter.SimpleConverter",
                    "dataType":"string"
                  }
                },
                {
                  "columnName":"tenant_id",
                  "columnType":"field",
                  "dataType":"integer",
                  "provider":"asklytics",
                  "providerMap":{
                    "columnName":"tenant_id",
                    "converterClass":"com.asklytics.data.transformer.db.manager.influxdb.persistor.converter.SimpleConverter",
                    "dataType":"integer"
                  }
                },
                {
                  "columnName":"scenario_id",
                  "columnType":"tag",
                  "dataType":"integer",
                  "provider":"asklytics",
                  "providerMap":{
                    "columnName":"scenario_id",
                    "converterClass":"com.asklytics.data.transformer.db.manager.influxdb.persistor.converter.SimpleConverter",
                    "dataType":"integer"
                  }
                },
                {
                  "columnName":"analysis_id",
                  "columnType":"tag",
                  "dataType":"integer",
                  "provider":"asklytics",
                  "providerMap":{
                    "columnName":"analysis_id",
                    "converterClass":"com.asklytics.data.transformer.db.manager.influxdb.persistor.converter.SimpleConverter",
                    "dataType":"integer"
                  }
                },
                {
                  "columnName":"plugin",
                  "columnType":"field",
                  "dataType":"integer",
                  "provider":"asklytics",
                  "providerMap":{
                    "columnName":"plugin",
                    "converterClass":"com.asklytics.data.transformer.db.manager.influxdb.persistor.converter.SimpleConverter",
                    "dataType":"integer"
                  }
                },
                {
                  "columnName":"collection_id",
                  "columnType":"tag",
                  "dataType":"integer",
                  "provider":"asklytics",
                  "providerMap":{
                    "columnName":"collection_id",
                    "converterClass":"com.asklytics.data.transformer.db.manager.influxdb.persistor.converter.SimpleConverter",
                    "dataType":"integer"
                  }
                },
                {
                  "columnName":"project_id",
                  "columnType":"tag",
                  "dataType":"integer",
                  "provider":"asklytics",
                  "providerMap":{
                    "columnName":"project_id",
                    "converterClass":"com.asklytics.data.transformer.db.manager.influxdb.persistor.converter.SimpleConverter",
                    "dataType":"integer"
                  }
                },
                {
                  "columnName":"test_id",
                  "columnType":"tag",
                  "dataType":"integer",
                  "provider":"asklytics",
                  "providerMap":{
                    "columnName":"test_id",
                    "converterClass":"com.asklytics.data.transformer.db.manager.influxdb.persistor.converter.SimpleConverter",
                    "dataType":"integer"
                  }
                },
                {
                  "columnName":"session_id",
                  "columnType":"tag",
                  "dataType":"integer",
                  "provider":"asklytics",
                  "providerMap":{
                    "columnName":"session_id",
                    "converterClass":"com.asklytics.data.transformer.db.manager.influxdb.persistor.converter.SimpleConverter",
                    "dataType":"integer"
                  }
                },
                {
                  "columnName":"source",
                  "columnType":"tag",
                  "dataType":"string",
                  "provider":"asklytics",
                  "providerMap":{
                    "columnName":"source",
                    "converterClass":"com.asklytics.data.transformer.db.manager.influxdb.persistor.converter.SimpleConverter",
                    "dataType":"string"
                  }
                },
                {
                  "columnName":"internal_tags",
                  "columnType":"tag",
                  "dataType":"string",
                  "provider":"asklytics",
                  "providerMap":{
                    "columnName":"internal_tags",
                    "converterClass":"com.asklytics.data.transformer.db.manager.influxdb.persistor.converter.SimpleConverter",
                    "dataType":"string"
                  }
                },
                {
                  "columnName":"tags",
                  "columnType":"tag",
                  "dataType":"string",
                  "provider":"asklytics",
                  "providerMap":{
                    "columnName":"tags",
                    "converterClass":"com.asklytics.data.transformer.db.manager.influxdb.persistor.converter.SimpleConverter",
                    "dataType":"string"
                  }
                }
              ]
            },
            {
              "dbStoreType":"influxdb",
              "dbStoreTableName":"jmeter_log_derived_tps_success_or_error",
              "derivedDataType":"tps_error",

              "dbStoreColumns":[
                {
                  "columnName":"timestamp",
                  "columnType":"time",
                  "dataType":"long",
                  "provider":"jmeter-log",
                  "providerMap":{
                    "columnName":"time",
                    "converterClass":"com.asklytics.data.transformer.db.manager.influxdb.persistor.converter.SimpleConverter",
                    "dataType":"long"
                  }
                },
                {
                  "columnName":"allthreads",
                  "columnType":"field",
                  "dataType":"decimal",
                  "provider":"jmeter-log",
                  "providerMap":{
                    "columnName":"allthreads",
                    "converterClass":"com.asklytics.data.transformer.db.manager.influxdb.persistor.converter.SimpleConverter",
                    "dataType":"decimal"
                  }
                },
                {
                  "columnName":"allthreads-tag",
                  "columnType":"tag",
                  "dataType":"decimal",
                  "provider":"jmeter-log",
                  "providerMap":{
                    "columnName":"allthreads",
                    "converterClass":"com.asklytics.data.transformer.db.manager.influxdb.persistor.converter.SimpleConverter",
                    "dataType":"decimal"
                  }
                },
                {
                  "columnName":"elapsed",
                  "columnType":"field",
                  "dataType":"decimal",
                  "provider":"jmeter-log",
                  "providerMap":{
                    "columnName":"elapsed",
                    "converterClass":"com.asklytics.data.transformer.db.manager.influxdb.persistor.converter.SimpleConverter",
                    "dataType":"decimal"
                  }
                },
                {
                  "columnName":"elapsed-tag",
                  "columnType":"tag",
                  "dataType":"decimal",
                  "provider":"jmeter-log",
                  "providerMap":{
                    "columnName":"elapsed",
                    "converterClass":"com.asklytics.data.transformer.db.manager.influxdb.persistor.converter.SimpleConverter",
                    "dataType":"decimal"
                  }
                },
                {
                  "columnName":"tps",
                  "columnType":"field",
                  "dataType":"decimal",
                  "provider":"jmeter-log",
                  "providerMap":{
                    "columnName":"tps",
                    "converterClass":"com.asklytics.data.transformer.db.manager.influxdb.persistor.converter.SimpleConverter",
                    "dataType":"decimal"
                  }
                },
                {
                  "columnName":"status",
                  "columnType":"field",
                  "dataType":"string",
                  "provider":"jmeter-log",
                  "providerMap":{
                    "columnName":"status",
                    "converterClass":"com.asklytics.data.transformer.db.manager.influxdb.persistor.converter.SimpleConverter",
                    "dataType":"string"
                  }
                },
                {
                  "columnName":"tenant_id",
                  "columnType":"field",
                  "dataType":"integer",
                  "provider":"asklytics",
                  "providerMap":{
                    "columnName":"tenant_id",
                    "converterClass":"com.asklytics.data.transformer.db.manager.influxdb.persistor.converter.SimpleConverter",
                    "dataType":"integer"
                  }
                },
                {
                  "columnName":"scenario_id",
                  "columnType":"tag",
                  "dataType":"integer",
                  "provider":"asklytics",
                  "providerMap":{
                    "columnName":"scenario_id",
                    "converterClass":"com.asklytics.data.transformer.db.manager.influxdb.persistor.converter.SimpleConverter",
                    "dataType":"integer"
                  }
                },
                {
                  "columnName":"analysis_id",
                  "columnType":"tag",
                  "dataType":"integer",
                  "provider":"asklytics",
                  "providerMap":{
                    "columnName":"analysis_id",
                    "converterClass":"com.asklytics.data.transformer.db.manager.influxdb.persistor.converter.SimpleConverter",
                    "dataType":"integer"
                  }
                },
                {
                  "columnName":"plugin",
                  "columnType":"field",
                  "dataType":"integer",
                  "provider":"asklytics",
                  "providerMap":{
                    "columnName":"plugin",
                    "converterClass":"com.asklytics.data.transformer.db.manager.influxdb.persistor.converter.SimpleConverter",
                    "dataType":"integer"
                  }
                },
                {
                  "columnName":"collection_id",
                  "columnType":"tag",
                  "dataType":"integer",
                  "provider":"asklytics",
                  "providerMap":{
                    "columnName":"collection_id",
                    "converterClass":"com.asklytics.data.transformer.db.manager.influxdb.persistor.converter.SimpleConverter",
                    "dataType":"integer"
                  }
                },
                {
                  "columnName":"project_id",
                  "columnType":"tag",
                  "dataType":"integer",
                  "provider":"asklytics",
                  "providerMap":{
                    "columnName":"project_id",
                    "converterClass":"com.asklytics.data.transformer.db.manager.influxdb.persistor.converter.SimpleConverter",
                    "dataType":"integer"
                  }
                },
                {
                  "columnName":"test_id",
                  "columnType":"tag",
                  "dataType":"integer",
                  "provider":"asklytics",
                  "providerMap":{
                    "columnName":"test_id",
                    "converterClass":"com.asklytics.data.transformer.db.manager.influxdb.persistor.converter.SimpleConverter",
                    "dataType":"integer"
                  }
                },
                {
                  "columnName":"session_id",
                  "columnType":"tag",
                  "dataType":"integer",
                  "provider":"asklytics",
                  "providerMap":{
                    "columnName":"session_id",
                    "converterClass":"com.asklytics.data.transformer.db.manager.influxdb.persistor.converter.SimpleConverter",
                    "dataType":"integer"
                  }
                },
                {
                  "columnName":"source",
                  "columnType":"tag",
                  "dataType":"string",
                  "provider":"asklytics",
                  "providerMap":{
                    "columnName":"source",
                    "converterClass":"com.asklytics.data.transformer.db.manager.influxdb.persistor.converter.SimpleConverter",
                    "dataType":"string"
                  }
                },
                {
                  "columnName":"internal_tags",
                  "columnType":"tag",
                  "dataType":"string",
                  "provider":"asklytics",
                  "providerMap":{
                    "columnName":"internal_tags",
                    "converterClass":"com.asklytics.data.transformer.db.manager.influxdb.persistor.converter.SimpleConverter",
                    "dataType":"string"
                  }
                },
                {
                  "columnName":"tags",
                  "columnType":"tag",
                  "dataType":"string",
                  "provider":"asklytics",
                  "providerMap":{
                    "columnName":"tags",
                    "converterClass":"com.asklytics.data.transformer.db.manager.influxdb.persistor.converter.SimpleConverter",
                    "dataType":"string"
                  }
                }
              ]
            },

            {
              "dbStoreType":"influxdb",
              "dbStoreTableName":"jmeter_log_derived_tps_label",
              "derivedDataType":"tps_label",

              "dbStoreColumns":[
                {
                  "columnName":"timestamp",
                  "columnType":"time",
                  "dataType":"long",
                  "provider":"jmeter-log",
                  "providerMap":{
                    "columnName":"time",
                    "converterClass":"com.asklytics.data.transformer.db.manager.influxdb.persistor.converter.SimpleConverter",
                    "dataType":"long"
                  }
                },
                {
                  "columnName":"allthreads",
                  "columnType":"field",
                  "dataType":"decimal",
                  "provider":"jmeter-log",
                  "providerMap":{
                    "columnName":"allthreads",
                    "converterClass":"com.asklytics.data.transformer.db.manager.influxdb.persistor.converter.SimpleConverter",
                    "dataType":"decimal"
                  }
                },
                {
                  "columnName":"allthreads-tag",
                  "columnType":"tag",
                  "dataType":"decimal",
                  "provider":"jmeter-log",
                  "providerMap":{
                    "columnName":"allthreads",
                    "converterClass":"com.asklytics.data.transformer.db.manager.influxdb.persistor.converter.SimpleConverter",
                    "dataType":"decimal"
                  }
                },
                {
                  "columnName":"elapsed",
                  "columnType":"field",
                  "dataType":"decimal",
                  "provider":"jmeter-log",
                  "providerMap":{
                    "columnName":"elapsed",
                    "converterClass":"com.asklytics.data.transformer.db.manager.influxdb.persistor.converter.SimpleConverter",
                    "dataType":"decimal"
                  }
                },
                {
                  "columnName":"elapsed-tag",
                  "columnType":"tag",
                  "dataType":"decimal",
                  "provider":"jmeter-log",
                  "providerMap":{
                    "columnName":"elapsed",
                    "converterClass":"com.asklytics.data.transformer.db.manager.influxdb.persistor.converter.SimpleConverter",
                    "dataType":"decimal"
                  }
                },
                {
                  "columnName":"label",
                  "columnType":"tag",
                  "dataType":"string",
                  "provider":"jmeter-log",
                  "providerMap":{
                    "columnName":"label",
                    "converterClass":"com.asklytics.data.transformer.db.manager.influxdb.persistor.converter.SimpleConverter",
                    "dataType":"string"
                  }
                },
                {
                  "columnName":"tps",
                  "columnType":"field",
                  "dataType":"decimal",
                  "provider":"jmeter-log",
                  "providerMap":{
                    "columnName":"tps",
                    "converterClass":"com.asklytics.data.transformer.db.manager.influxdb.persistor.converter.SimpleConverter",
                    "dataType":"decimal"
                  }
                },
                {
                  "columnName":"tenant_id",
                  "columnType":"field",
                  "dataType":"integer",
                  "provider":"asklytics",
                  "providerMap":{
                    "columnName":"tenant_id",
                    "converterClass":"com.asklytics.data.transformer.db.manager.influxdb.persistor.converter.SimpleConverter",
                    "dataType":"integer"
                  }
                },
                {
                  "columnName":"scenario_id",
                  "columnType":"tag",
                  "dataType":"integer",
                  "provider":"asklytics",
                  "providerMap":{
                    "columnName":"scenario_id",
                    "converterClass":"com.asklytics.data.transformer.db.manager.influxdb.persistor.converter.SimpleConverter",
                    "dataType":"integer"
                  }
                },
                {
                  "columnName":"analysis_id",
                  "columnType":"tag",
                  "dataType":"integer",
                  "provider":"asklytics",
                  "providerMap":{
                    "columnName":"analysis_id",
                    "converterClass":"com.asklytics.data.transformer.db.manager.influxdb.persistor.converter.SimpleConverter",
                    "dataType":"integer"
                  }
                },
                {
                  "columnName":"plugin",
                  "columnType":"field",
                  "dataType":"integer",
                  "provider":"asklytics",
                  "providerMap":{
                    "columnName":"plugin",
                    "converterClass":"com.asklytics.data.transformer.db.manager.influxdb.persistor.converter.SimpleConverter",
                    "dataType":"integer"
                  }
                },
                {
                  "columnName":"collection_id",
                  "columnType":"tag",
                  "dataType":"integer",
                  "provider":"asklytics",
                  "providerMap":{
                    "columnName":"collection_id",
                    "converterClass":"com.asklytics.data.transformer.db.manager.influxdb.persistor.converter.SimpleConverter",
                    "dataType":"integer"
                  }
                },
                {
                  "columnName":"project_id",
                  "columnType":"tag",
                  "dataType":"integer",
                  "provider":"asklytics",
                  "providerMap":{
                    "columnName":"project_id",
                    "converterClass":"com.asklytics.data.transformer.db.manager.influxdb.persistor.converter.SimpleConverter",
                    "dataType":"integer"
                  }
                },
                {
                  "columnName":"test_id",
                  "columnType":"tag",
                  "dataType":"integer",
                  "provider":"asklytics",
                  "providerMap":{
                    "columnName":"test_id",
                    "converterClass":"com.asklytics.data.transformer.db.manager.influxdb.persistor.converter.SimpleConverter",
                    "dataType":"integer"
                  }
                },
                {
                  "columnName":"session_id",
                  "columnType":"tag",
                  "dataType":"integer",
                  "provider":"asklytics",
                  "providerMap":{
                    "columnName":"session_id",
                    "converterClass":"com.asklytics.data.transformer.db.manager.influxdb.persistor.converter.SimpleConverter",
                    "dataType":"integer"
                  }
                },
                {
                  "columnName":"source",
                  "columnType":"tag",
                  "dataType":"string",
                  "provider":"asklytics",
                  "providerMap":{
                    "columnName":"source",
                    "converterClass":"com.asklytics.data.transformer.db.manager.influxdb.persistor.converter.SimpleConverter",
                    "dataType":"string"
                  }
                },
                {
                  "columnName":"internal_tags",
                  "columnType":"tag",
                  "dataType":"string",
                  "provider":"asklytics",
                  "providerMap":{
                    "columnName":"internal_tags",
                    "converterClass":"com.asklytics.data.transformer.db.manager.influxdb.persistor.converter.SimpleConverter",
                    "dataType":"string"
                  }
                },
                {
                  "columnName":"tags",
                  "columnType":"tag",
                  "dataType":"string",
                  "provider":"asklytics",
                  "providerMap":{
                    "columnName":"tags",
                    "converterClass":"com.asklytics.data.transformer.db.manager.influxdb.persistor.converter.SimpleConverter",
                    "dataType":"string"
                  }
                }
              ]
            }
          ]
        },
        {
          "type":"perfmon",
          "dbStores":[
            {
              "dbStoreType":"influxdb",
              "dbStoreTableName":"jmeter_perform_derived",
              "dbStoreColumns":[
                {
                  "columnName":"timestamp",
                  "columnType":"time",
                  "dataType":"long",
                  "provider":"collector",
                  "providerMap":{
                    "columnName":"timestamp",
                    "converterClass":"com.asklytics.data.transformer.db.manager.influxdb.persistor.converter.SimpleConverter",
                    "dataType":"long"
                  }
                },
                {
                  "columnName":"tenant_id",
                  "columnType":"field",
                  "dataType":"integer",
                  "provider":"asklytics",
                  "providerMap":{
                    "columnName":"tenant_id",
                    "converterClass":"com.asklytics.data.transformer.db.manager.influxdb.persistor.converter.SimpleConverter",
                    "dataType":"integer"
                  }
                },
                {
                  "columnName":"analysis_id",
                  "columnType":"tag",
                  "dataType":"integer",
                  "provider":"asklytics",
                  "providerMap":{
                    "columnName":"analysis_id",
                    "converterClass":"com.asklytics.data.transformer.db.manager.influxdb.persistor.converter.SimpleConverter",
                    "dataType":"integer"
                  }
                },
                {
                  "columnName":"plugin",
                  "columnType":"field",
                  "dataType":"integer",
                  "provider":"asklytics",
                  "providerMap":{
                    "columnName":"plugin",
                    "converterClass":"com.asklytics.data.transformer.db.manager.influxdb.persistor.converter.SimpleConverter",
                    "dataType":"integer"
                  }
                },
                {
                  "columnName":"collection_id",
                  "columnType":"tag",
                  "dataType":"integer",
                  "provider":"asklytics",
                  "providerMap":{
                    "columnName":"collection_id",
                    "converterClass":"com.asklytics.data.transformer.db.manager.influxdb.persistor.converter.SimpleConverter",
                    "dataType":"integer"
                  }
                },
                {
                  "columnName":"project_id",
                  "columnType":"tag",
                  "dataType":"integer",
                  "provider":"asklytics",
                  "providerMap":{
                    "columnName":"project_id",
                    "converterClass":"com.asklytics.data.transformer.db.manager.influxdb.persistor.converter.SimpleConverter",
                    "dataType":"integer"
                  }
                },
                {
                  "columnName":"test_id",
                  "columnType":"tag",
                  "dataType":"integer",
                  "provider":"asklytics",
                  "providerMap":{
                    "columnName":"test_id",
                    "converterClass":"com.asklytics.data.transformer.db.manager.influxdb.persistor.converter.SimpleConverter",
                    "dataType":"integer"
                  }
                },
                {
                  "columnName":"session_id",
                  "columnType":"tag",
                  "dataType":"integer",
                  "provider":"asklytics",
                  "providerMap":{
                    "columnName":"session_id",
                    "converterClass":"com.asklytics.data.transformer.db.manager.influxdb.persistor.converter.SimpleConverter",
                    "dataType":"integer"
                  }
                },
                {
                  "columnName":"scenario_id",
                  "columnType":"tag",
                  "dataType":"integer",
                  "provider":"asklytics",
                  "providerMap":{
                    "columnName":"scenario_id",
                    "converterClass":"com.asklytics.data.transformer.db.manager.influxdb.persistor.converter.SimpleConverter",
                    "dataType":"integer"
                  }
                },
                {
                  "columnName":"analysis_id",
                  "columnType":"tag",
                  "dataType":"integer",
                  "provider":"asklytics",
                  "providerMap":{
                    "columnName":"analysis_id",
                    "converterClass":"com.asklytics.data.transformer.db.manager.influxdb.persistor.converter.SimpleConverter",
                    "dataType":"integer"
                  }
                },
                {
                  "columnName":"source",
                  "columnType":"tag",
                  "dataType":"string",
                  "provider":"asklytics",
                  "providerMap":{
                    "columnName":"source",
                    "converterClass":"com.asklytics.data.transformer.db.manager.influxdb.persistor.converter.SimpleConverter",
                    "dataType":"string"
                  }
                },
                {
                  "columnName":"internal_tags",
                  "columnType":"tag",
                  "dataType":"string",
                  "provider":"asklytics",
                  "providerMap":{
                    "columnName":"internal_tags",
                    "converterClass":"com.asklytics.data.transformer.db.manager.influxdb.persistor.converter.SimpleConverter",
                    "dataType":"string"
                  }
                },
                {
                  "columnName":"tags",
                  "columnType":"tag",
                  "dataType":"string",
                  "provider":"asklytics",
                  "providerMap":{
                    "columnName":"tags",
                    "converterClass":"com.asklytics.data.transformer.db.manager.influxdb.persistor.converter.SimpleConverter",
                    "dataType":"string"
                  }
                }
              ]
            }
          ]
        }
      ]
    }
  ]
}
