{
  "asklyticsRestInfos":[
    {
      "contextPath": "/ml-api/api/v1/mlaas/analysis/",
      "controllerName" : "AnalysisController",
      "actionName" : "getAnalysis",
      "restParameterInfos":[
        {
          "paramName" : "analysisId",
          "paramValueExpectType" : "Integer",
          "required" : true,
          "requestParamaterType" : "request_param"

        }
      ],
      "requestData" : null,
      "restOperation" : "get"
    },
    {
      "contextPath": "/ml-api/api/v1/mlaas/analysis/",
      "controllerName" : "AnalysisController",
      "actionName" : "createAnalysis",
      "restParameterInfos":[
        {
          "paramName" : "analysisDescription",
          "paramValueExpectType" : "String",
          "required" : false,
          "requestParamaterType" : "request_param"

        },
        {
          "paramName" : "analysisType",
          "paramValueExpectType" : "String",
          "required" : true,
          "requestParamaterType" : "request_param"

        },
        {
          "paramName" : "analysisName",
          "paramValueExpectType" : "String",
          "required" : false,
          "requestParamaterType" : "request_param"

        },
        {
          "paramName" : "analysisId",
          "paramValueExpectType" : "Long",
          "required" : false,
          "requestParamaterType" : "request_param"

        }
      ],
      "requestData" : null,
      "restOperation" : "post"
    },
    {
      "contextPath": "/ml-api/api/v1/mlaas/analysis/",
      "controllerName" : "AnalysisController",
      "actionName" : "deleteAnalysis",
      "restParameterInfos":[
        {
          "paramName" : "analysisId",
          "paramValueExpectType" : "Integer",
          "required" : true,
          "requestParamaterType" : "request_param"

        }
      ],
      "requestData" : null,
      "restOperation" : "delete"
    },
    {
      "contextPath": "/ml-api/api/v1/mlaas/analysis/",
      "controllerName" : "AnalysisController",
      "actionName" : "cancelAnalysis",
      "restParameterInfos":[
        {
          "paramName" : "analysisId",
          "paramValueExpectType" : "Integer",
          "required" : true,
          "requestParamaterType" : "request_param"

        }
      ],
      "requestData" : null,
      "restOperation" : "put"
    },
    {
      "contextPath": "/ml-api/api/v1/mlaas/analysis/status",
      "controllerName" : "AnalysisController",
      "actionName" : "getAnalysisStatusAllOrById",
      "restParameterInfos":[
        {
        "paramName" : "a",
        "paramValueExpectType" : "Integer",
        "required" : false,
        "requestParamaterType" : "request_param"

        },
        {
          "paramName" : "page",
          "paramValueExpectType" : "Integer",
          "required" : false,
          "requestParamaterType" : "request_param"

        },
        {
          "paramName" : "n",
          "paramValueExpectType" : "Integer",
          "required" : false,
          "requestParamaterType" : "request_param"

        },
        {
          "paramName" : "t",
          "paramValueExpectType" : "Long",
          "required" : false,
          "requestParamaterType" : "request_param"

        },
        {
          "paramName" : "t",
          "paramValueExpectType" : "Long",
          "required" : false,
          "requestParamaterType" : "request_param"

        }
      ],
      "requestData" : null,
      "restOperation" : "get"
    },
    {
      "contextPath": "/ml-api/api/v1/mlaas/analysis/types",
      "controllerName" : "AnalysisController",
      "actionName" : "getAllAnalysisTypesBySupportLevel",
      "restParameterInfos":[
        {
          "paramName" : "supportLevel",
          "paramValueExpectType" : "String",
          "required" : false,
          "requestParamaterType" : "request_param"

        }
      ],
      "requestData" : null,
      "restOperation" : "get"
    },
    {
      "contextPath": "/ml-api/api/v1/mlaas/upload-data",
      "controllerName" : "DataFileReceiverController",
      "actionName" : "deleteFile",
      "restParameterInfos":[
        {
          "paramName" : "analysisId",
          "paramValueExpectType" : "Long",
          "required" : true,
          "requestParamaterType" : "request_param"

        },
        {
          "paramName" : "datasetId",
          "paramValueExpectType" : "Integer",
          "required" : true,
          "requestParamaterType" : "request_param"

        },
        {
          "paramName" : "fileId",
          "paramValueExpectType" : "Integer",
          "required" : true,
          "requestParamaterType" : "request_param"

        }
      ],
      "requestData" : null,
      "restOperation" : "delete"
    },
    {
      "contextPath": "/ml-api/api/v1/mlaas/upload-data",
      "controllerName" : "DataFileReceiverController",
      "actionName" : "uploadDataFile",
      "restParameterInfos":[
        {
          "paramName" : "file",
          "paramValueExpectType" : "MultipartFile",
          "required" : true,
          "requestParamaterType" : "request_param"

        },
        {
          "paramName" : "analysisId",
          "paramValueExpectType" : "Long",
          "required" : true,
          "requestParamaterType" : "request_param"

        },
        {
          "paramName" : "action",
          "paramValueExpectType" : "String",
          "required" : true,
          "requestParamaterType" : "request_param"

        },
        {
          "paramName" : "fileId",
          "paramValueExpectType" : "Integer",
          "required" : true,
          "requestParamaterType" : "request_param"

        },
        {
          "paramName" : "datasetId",
          "paramValueExpectType" : "Integer",
          "required" : true,
          "requestParamaterType" : "request_param"

        }
      ],
      "requestData" : null,
      "restOperation" : "post"
    },
    {
      "contextPath": "/ml-api/api/v1/mlaas/verify-data",
      "controllerName" : "DataFileReceiverController",
      "actionName" : "verifyData",
      "restParameterInfos":[
        {
          "paramName" : "analysisId",
          "paramValueExpectType" : "Integer",
          "required" : true,
          "requestParamaterType" : "request_param"

        },
        {
          "paramName" : "verifyMetrics",
          "paramValueExpectType" : "Array[]",
          "required" : true,
          "requestParamaterType" : "request_param"

        }
      ],
      "requestData" : null,
      "restOperation" : "post"
    },
    {
      "contextPath": "/ml-api/api/v1/mlaas/upload-status",
      "controllerName" : "DataFileReceiverController",
      "actionName" : "getDataSetStatus",
      "restParameterInfos":[
        {
          "paramName" : "analysisId",
          "paramValueExpectType" : "Integer",
          "required" : true,
          "requestParamaterType" : "request_param"

        }
      ],
      "requestData" : null,
      "restOperation" : "get"
    },
    {
      "contextPath": "/ml-api/api/v1/mlaas/delete-dataset",
      "controllerName" : "DataFileReceiverController",
      "actionName" : "deleteDataSet",
      "restParameterInfos":[
        {
          "paramName" : "analysisId",
          "paramValueExpectType" : "Long",
          "required" : true,
          "requestParamaterType" : "request_param"

        },
        {
          "paramName" : "datasetId",
          "paramValueExpectType" : "Integer",
          "required" : true,
          "requestParamaterType" : "request_param"

        }
      ],
      "requestData" : null,
      "restOperation" : "delete"
    },
    {
      "contextPath": "/ml-api/api/v1/mlaas/scenario",
      "controllerName" : "ScenarioController",
      "actionName" : "getScenario",
      "restParameterInfos":[
        {
          "paramName" : "scenarioId",
          "paramValueExpectType" : "Integer",
          "required" : true,
          "requestParamaterType" : "request_param"

        }
      ],
      "requestData" : null,
      "restOperation" : "get"
    },
    {
      "contextPath": "/ml-api/api/v1/mlaas/scenario",
      "controllerName" : "ScenarioController",
      "actionName" : "createScenario",
      "restParameterInfos":[
        {
          "paramName" : "analysisId",
          "paramValueExpectType" : "Integer",
          "required" : true,
          "requestParamaterType" : "request_param"

        },
        {
          "paramName" : "scenarioType",
          "paramValueExpectType" : "String",
          "required" : true,
          "requestParamaterType" : "request_param"

        },
        {
          "paramName" : "scenarioDescription",
          "paramValueExpectType" : "String",
          "required" : false,
          "requestParamaterType" : "request_param"

        },
        {
          "paramName" : "scenarioName",
          "paramValueExpectType" : "String",
          "required" : false,
          "requestParamaterType" : "request_param"

        }
      ],
      "requestData" : null,
      "restOperation" : "post"
    },
    {
      "contextPath": "/ml-api/api/v1/mlaas/scenario",
      "controllerName" : "ScenarioController",
      "actionName" : "deleteScenario",
      "restParameterInfos":[
        {
          "paramName" : "scenarioId",
          "paramValueExpectType" : "Integer",
          "required" : true,
          "requestParamaterType" : "request_param"

        }
      ],
      "requestData" : null,
      "restOperation" : "delete"
    },
    {
      "contextPath": "/ml-api/api/v1/mlaas/scenario",
      "controllerName" : "ScenarioController",
      "actionName" : "cancelScenario",
      "restParameterInfos":[
        {
          "paramName" : "scenarioId",
          "paramValueExpectType" : "Integer",
          "required" : true,
          "requestParamaterType" : "request_param"

        }
      ],
      "requestData" : null,
      "restOperation" : "put"
    },
    {
      "contextPath": "/ml-api/api/v1/mlaas/scenario/status",
      "controllerName" : "ScenarioController",
      "actionName" : "getScenarioStatusAllOrById",
      "restParameterInfos":[
        {
          "paramName" : "s",
          "paramValueExpectType" : "Integer",
          "required" : false,
          "requestParamaterType" : "request_param"

        }
      ],
      "requestData" : null,
      "restOperation" : "get"
    },
    {
      "contextPath": "/ml-api/api/v1/mlaas/scenario/config",
      "controllerName" : "ScenarioController",
      "actionName" : "getConfigurationById",
      "restParameterInfos":[
        {
          "paramName" : "s",
          "paramValueExpectType" : "Integer",
          "required" : true,
          "requestParamaterType" : "request_param"

        }
      ],
      "requestData" : null,
      "restOperation" : "get"
    },
    {
      "contextPath": "/ml-api/api/v1/mlaas/scenario/info",
      "controllerName" : "ScenarioController",
      "actionName" : "getScenarioInfo",
      "restParameterInfos":[
        {
          "paramName" : "s",
          "paramValueExpectType" : "Integer",
          "required" : true,
          "requestParamaterType" : "request_param"

        }
      ],
      "requestData" : null,
      "restOperation" : "get"
    },
    {
      "contextPath": "/ml-api/api/v1/mlaas/scenario/result/summary",
      "controllerName" : "ScenarioController",
      "actionName" : "getScenarioResult",
      "restParameterInfos":[
        {
          "paramName" : "s",
          "paramValueExpectType" : "Integer",
          "required" : false,
          "requestParamaterType" : "request_param"

        },
        {
          "paramName" : "a",
          "paramValueExpectType" : "Integer",
          "required" : false,
          "requestParamaterType" : "request_param"

        }
      ],
      "requestData" : null,
      "restOperation" : "get"
    }
  ]
}