{
  "collectors":[
    {
      "description":"",
      "collectorType":"jmeter",
      "collectorVersion": "1.0",
      "plugins":[
        {
          "pluginType":"log",
          "pluginName":"log",
          "metrics":[
            {
              "metricGroup":"response",
              "note":"",
              "options":[
                {
                  "name":"vu",
                  "displayName":"vu",
                  "raw_data_units":"",
                  "post_processing_units":"VU"
                },
                {
                  "name":"latency",
                  "displayName":"latency",
                  "raw_data_units":"",
                  "post_processing_units":"ms"
                },
                {
                  "name":"resptime",
                  "displayName":"respTime",
                  "raw_data_units":"",
                  "post_processing_units":"ms"
                },
                {
                  "name":"tps",
                  "displayName":"tps",
                  "raw_data_units":"",
                  "post_processing_units":"TPS"
                },
                {
                  "name":"elapsed",
                  "displayName":"elapsed",
                  "raw_data_units":"",
                  "post_processing_units":"ms"
                },
                {
                  "name":"maxvu",
                  "displayName":"maxVu",
                  "raw_data_units":"",
                  "post_processing_units":"VU"
                },
                {
                  "name":"tpssuccess",
                  "displayName":"tpsSuccess",
                  "raw_data_units":"",
                  "post_processing_units":"TPS"
                },
                {
                  "name":"resptimesuccess",
                  "displayName":"respTimeSuccess",
                  "raw_data_units":"",
                  "post_processing_units":"ms"
                },
                {
                  "name":"vusuccess",
                  "displayName":"vuSuccess",
                  "raw_data_units":"",
                  "post_processing_units":"VU"
                }
              ]
            },

            {
              "metricGroup":"log",
              "note":"",
              "options":[
                {
                  "name":"vu",
                  "displayName":"vu",
                  "raw_data_units":"",
                  "post_processing_units":"VU"
                },
                {
                  "name":"latency",
                  "displayName":"latency",
                  "raw_data_units":"",
                  "post_processing_units":"ms"
                },
                {
                  "name":"resptime",
                  "displayName":"respTime",
                  "raw_data_units":"",
                  "post_processing_units":"ms"
                },
                {
                  "name":"tps",
                  "displayName":"tps",
                  "raw_data_units":"",
                  "post_processing_units":"TPS"
                },
                {
                  "name":"elapsed",
                  "displayName":"elapsed",
                  "raw_data_units":"",
                  "post_processing_units":"ms"
                },
                {
                  "name":"maxvu",
                  "displayName":"maxVu",
                  "raw_data_units":"",
                  "post_processing_units":"VU"
                },
                {
                  "name":"tpssuccess",
                  "displayName":"tpsSuccess",
                  "raw_data_units":"",
                  "post_processing_units":"TPS"
                },
                {
                  "name":"resptimesuccess",
                  "displayName":"respTimeSuccess",
                  "raw_data_units":"",
                  "post_processing_units":"ms"
                },
                {
                  "name":"vusuccess",
                  "displayName":"vuSuccess",
                  "raw_data_units":"",
                  "post_processing_units":"VU"
                }
              ]
            }
          ]
        },
        {
          "pluginType":"perfmon",
          "pluginName":"perfmon",
          "metrics":[
            {
              "metricGroup":"cpu",
              "note":"",
              "options":[
                {
                  "name":"cpu_combined",
                  "displayName":"combined",
                  "raw_data_units":"",
                  "post_processing_units":""
                },
                {
                  "name":"cpu_idle",
                  "displayName":"idle",
                  "raw_data_units":"",
                  "post_processing_units":""
                },
                {
                  "name":"cpu_system",
                  "displayName":"system",
                  "raw_data_units":"",
                  "post_processing_units":""
                },
                {
                  "name":"cpu_user",
                  "displayName":"user",
                  "raw_data_units":"",
                  "post_processing_units":""
                },
                {
                  "name":"cpu_iowait",
                  "displayName":"iowait",
                  "raw_data_units":"",
                  "post_processing_units":""
                },
                {
                  "name":"cpu_irq",
                  "displayName":"irq",
                  "raw_data_units":"",
                  "post_processing_units":""
                },
                {
                  "name":"cpu_nice",
                  "displayName":"nice",
                  "raw_data_units":"",
                  "post_processing_units":""
                },
                {
                  "name":"cpu_softirq",
                  "displayName":"softirq",
                  "raw_data_units":"",
                  "post_processing_units":""
                },
                {
                  "name":"cpu_stolen",
                  "displayName":"stolen",
                  "raw_data_units":"",
                  "post_processing_units":""
                },
                {
                  "name":"cpu_per_process_percent",
                  "displayName":"per_process_percent",
                  "raw_data_units":"",
                  "post_processing_units":""
                },
                {
                  "name":"cpu_per_process_total",
                  "displayName":"per_process_total",
                  "raw_data_units":"",
                  "post_processing_units":""
                },
                {
                  "name":"cpu_per_process_system",
                  "displayName":"per_process_system",
                  "raw_data_units":"",
                  "post_processing_units":""
                },
                {
                  "name":"cpu_per_process_user",
                  "displayName":"per_process_user",
                  "raw_data_units":"",
                  "post_processing_units":""
                },
                {
                  "name":"cpu_contest_manager_service",
                  "displayName":"contest_manager_service",
                  "raw_data_units":"",
                  "post_processing_units":""
                },
                {
                  "name":"cpu_leaderboard_service",
                  "displayName":"leaderboard_service",
                  "raw_data_units":"",
                  "post_processing_units":""
                }
              ]
            },

            {
              "metricGroup":"disks",
              "note":"",
              "options":[
                {
                  "name":"disks_i_o_files",
                  "displayName":"I/O files",
                  "raw_data_units":"",
                  "post_processing_units":""
                },
                {
                  "name":"disks_i_o_free",
                  "displayName":"I/O free",
                  "raw_data_units":"",
                  "post_processing_units":""
                },
                {
                  "name":"disks_i_o_freefiles",
                  "displayName":"I/O freefiles",
                  "raw_data_units":"",
                  "post_processing_units":""
                },
                {
                  "name":"disks_i_o_queue",
                  "displayName":"I/O queue",
                  "raw_data_units":"",
                  "post_processing_units":""
                },
                {
                  "name":"disks_i_o_readbytes",
                  "displayName":"I/O readbytes",
                  "raw_data_units":"",
                  "post_processing_units":"bytes"
                },
                {
                  "name":"disks_i_o_reads",
                  "displayName":"I/O reads",
                  "raw_data_units":"",
                  "post_processing_units":""
                },
                {
                  "name":"disks_i_o_service",
                  "displayName":"I/O service",
                  "raw_data_units":"",
                  "post_processing_units":""
                },
                {
                  "name":"disks_i_o_available",
                  "displayName":"I/O available",
                  "raw_data_units":"",
                  "post_processing_units":"bytes"
                },
                {
                  "name":"disks_i_o_used",
                  "displayName":"I/O used",
                  "raw_data_units":"",
                  "post_processing_units":"bytes"
                },
                {
                  "name":"disks_i_o_useperc",
                  "displayName":"I/O useperc",
                  "raw_data_units":"",
                  "post_processing_units":""
                },
                {
                  "name":"disks_i_o_writes",
                  "displayName":"I/O writes",
                  "raw_data_units":"",
                  "post_processing_units":""
                },
                {
                  "name":"disks_i_o_writebytes",
                  "displayName":"I/O writebytes",
                  "raw_data_units":"",
                  "post_processing_units":"bytes"
                },
                {
                  "name":"disks_i_o_total",
                  "displayName":"I/O total",
                  "raw_data_units":"",
                  "post_processing_units":"bytes"
                }
              ]
            },

            {
              "metricGroup":"memory",
              "note":"",
              "options":[
                {
                  "name":"memory_usedperc",
                  "displayName":"usedperc",
                  "raw_data_units":"",
                  "post_processing_units":""
                },
                {
                  "name":"memory_freeperc",
                  "displayName":"freeperc",
                  "raw_data_units":"",
                  "post_processing_units":""
                },
                {
                  "name":"memory_used",
                  "displayName":"used",
                  "raw_data_units":"",
                  "post_processing_units":"bytes"
                },
                {
                  "name":"memory_free",
                  "displayName":"free",
                  "raw_data_units":"",
                  "post_processing_units":"bytes"
                },
                {
                  "name":"memory_actualfree",
                  "displayName":"actualfree",
                  "raw_data_units":"",
                  "post_processing_units":"b"
                },
                {
                  "name":"memory_actualused",
                  "displayName":"actualused",
                  "raw_data_units":"",
                  "post_processing_units":"bytes"
                },
                {
                  "name":"memory_ram",
                  "displayName":"ram",
                  "raw_data_units":"",
                  "post_processing_units":""
                },
                {
                  "name":"memory_total",
                  "displayName":"total",
                  "raw_data_units":"",
                  "post_processing_units":"bytes"
                },
                {
                  "name":"memory_per_process_resident",
                  "displayName":"per_process_resident",
                  "raw_data_units":"",
                  "post_processing_units":"bytes"
                },
                {
                  "name":"memory_per_process_virtual",
                  "displayName":"per_process_virtual",
                  "raw_data_units":"",
                  "post_processing_units":"bytes"
                },
                {
                  "name":"memory_per_process_shared",
                  "displayName":"per_process_shared",
                  "raw_data_units":"",
                  "post_processing_units":"bytes"
                },
                {
                  "name":"memory_per_process_pagefaults",
                  "displayName":"per_process_pagefaults",
                  "raw_data_units":"",
                  "post_processing_units":"bytes"
                },
                {
                  "name":"memory_per_process_majorfaults",
                  "displayName":"per_process_majorfaults",
                  "raw_data_units":"",
                  "post_processing_units":"bytes"
                },
                {
                  "name":"memory_contest_manager_service",
                  "displayName":"contest_manager_service",
                  "raw_data_units":"",
                  "post_processing_units":"bytes"
                },
                {
                  "name":"memory_leaderboard_service",
                  "displayName":"leaderboard_service",
                  "raw_data_units":"",
                  "post_processing_units":"bytes"
                },
                {
                  "name":"memory_per_process_minorfaults",
                  "displayName":"per_process_minorfaults",
                  "raw_data_units":"",
                  "post_processing_units":"bytes"
                }
              ]
            },

            {
              "metricGroup":"network",
              "note":"",
              "options":[
                {
                  "name":"network_i_o_bytesrecv",
                  "displayName":"I/O bytesrecv",
                  "raw_data_units":"",
                  "post_processing_units":"bytes"
                },
                {
                  "name":"network_i_o_bytessent",
                  "displayName":"I/O bytessent",
                  "raw_data_units":"",
                  "post_processing_units":"bytes"
                },
                {
                  "name":"network_i_o_rx",
                  "displayName":"I/O rx",
                  "raw_data_units":"",
                  "post_processing_units":""
                },
                {
                  "name":"network_i_o_tx",
                  "displayName":"I/O tx",
                  "raw_data_units":"",
                  "post_processing_units":""
                },
                {
                  "name":"network_i_o_used",
                  "displayName":"I/O used",
                  "raw_data_units":"",
                  "post_processing_units":""
                },
                {
                  "name":"network_i_o_speed",
                  "displayName":"I/O speed",
                  "raw_data_units":"",
                  "post_processing_units":""
                },
                {
                  "name":"network_i_o_rxdrops",
                  "displayName":"I/O rxdrops",
                  "raw_data_units":"",
                  "post_processing_units":""
                },
                {
                  "name":"network_i_o_rxerr",
                  "displayName":"I/O rxerr",
                  "raw_data_units":"",
                  "post_processing_units":""
                },
                {
                  "name":"network_i_o_rxframe",
                  "displayName":"I/O rxframe",
                  "raw_data_units":"",
                  "post_processing_units":""
                },
                {
                  "name":"network_i_o_rxoverruns",
                  "displayName":"I/O rxoverruns",
                  "raw_data_units":"",
                  "post_processing_units":""
                },
                {
                  "name":"network_i_o_txcarrier",
                  "displayName":"I/O txcarrier",
                  "raw_data_units":"",
                  "post_processing_units":""
                },
                {
                  "name":"network_i_o_txcollisions",
                  "displayName":"I/O txcollisions",
                  "raw_data_units":"",
                  "post_processing_units":""
                },
                {
                  "name":"network_i_o_txdrops",
                  "displayName":"I/O txdrops",
                  "raw_data_units":"",
                  "post_processing_units":""
                },
                {
                  "name":"network_i_o_txerr",
                  "displayName":"I/O txerr",
                  "raw_data_units":"",
                  "post_processing_units":""
                },
                {
                  "name":"network_i_o_txoverruns",
                  "displayName":"I/O txoverruns",
                  "raw_data_units":"",
                  "post_processing_units":""
                },
                {
                  "name":"network_i_o_Both_services_sent",
                  "displayName":"I/O Both_services_sent",
                  "raw_data_units":"",
                  "post_processing_units":""
                }
              ]
            },

            {
              "metricGroup":"swap",
              "note":"",
              "options":[
                {
                  "name":"swap_free",
                  "displayName":"free",
                  "raw_data_units":"",
                  "post_processing_units":"bytes"
                },
                {
                  "name":"swap_pagein",
                  "displayName":"pagein",
                  "raw_data_units":"",
                  "post_processing_units":""
                },
                {
                  "name":"swap_total",
                  "displayName":"total",
                  "raw_data_units":"",
                  "post_processing_units":"bytes"
                },
                {
                  "name":"swap_pageout",
                  "displayName":"pageout",
                  "raw_data_units":"",
                  "post_processing_units":""
                },
                {
                  "name":"swap_total",
                  "displayName":"total",
                  "raw_data_units":"",
                  "post_processing_units":"bytes"
                },
                {
                  "name":"swap_used",
                  "displayName":"used",
                  "raw_data_units":"",
                  "post_processing_units":"bytes"
                }
              ]
            },

            {
              "metricGroup":"tcp",
              "note":"",
              "options":[
                {
                  "name":"tcp_estab",
                  "displayName":"estab",
                  "raw_data_units":"",
                  "post_processing_units":""
                },
                {
                  "name":"tcp_time_wait",
                  "displayName":"time_wait",
                  "raw_data_units":"",
                  "post_processing_units":""
                },
                {
                  "name":"tcp_close_wait",
                  "displayName":"close_wait",
                  "raw_data_units":"",
                  "post_processing_units":""
                },
                {
                  "name":"tcp_bound",
                  "displayName":"bound",
                  "raw_data_units":"",
                  "post_processing_units":""
                },
                {
                  "name":"tcp_close",
                  "displayName":"close",
                  "raw_data_units":"",
                  "post_processing_units":""
                },
                {
                  "name":"tcp_closing",
                  "raw_data_units":"",
                  "post_processing_units":""
                },
                {
                  "name":"tcp_fin_wait1",
                  "displayName":"fin_wait1",
                  "raw_data_units":"",
                  "post_processing_units":""
                },
                {
                  "name":"tcp_fin_wait2",
                  "displayName":"fin_wait2",
                  "raw_data_units":"",
                  "post_processing_units":""
                },
                {
                  "name":"tcp_idle",
                  "displayName":"idle",
                  "raw_data_units":"",
                  "post_processing_units":""
                },
                {
                  "name":"tcp_inbound",
                  "displayName":"inbound",
                  "raw_data_units":"",
                  "post_processing_units":""
                },
                {
                  "name":"tcp_last_ack",
                  "displayName":"last_ack",
                  "raw_data_units":"",
                  "post_processing_units":""
                },
                {
                  "name":"tcp_listen",
                  "displayName":"listen",
                  "raw_data_units":"",
                  "post_processing_units":""
                },
                {
                  "name":"tcp_outbound",
                  "displayName":"outbound",
                  "raw_data_units":"",
                  "post_processing_units":""
                },
                {
                  "name":"tcp_syn_recv",
                  "displayName":"syn_recv",
                  "raw_data_units":"",
                  "post_processing_units":""
                }
              ]
            },

            {
              "metricGroup":"jmx",
              "note":"",
              "options":[
                {
                  "name":"jmx_gc_time",
                  "displayName":"gc-time",
                  "raw_data_units":"",
                  "post_processing_units":"ms"
                },
                {
                  "name":"jmx_memory_usage",
                  "displayName":"memory-usage",
                  "raw_data_units":"",
                  "post_processing_units":"bytes"
                },
                {
                  "name":"jmx_memory_committed",
                  "displayName":"memory-committed",
                  "raw_data_units":"",
                  "post_processing_units":"bytes"
                },
                {
                  "name":"jmx_memorypool_usage",
                  "displayName":"memorypool-usage",
                  "raw_data_units":"",
                  "post_processing_units":"bytes"
                },
                {
                  "name":"jmx_memorypool_committed",
                  "displayName":"memorypool-committed",
                  "raw_data_units":"",
                  "post_processing_units":"bytes"
                },
                {
                  "name":"jmx_class_count",
                  "displayName":"class-count",
                  "raw_data_units":"",
                  "post_processing_units":""
                },
                {
                  "name":"jmx_compile_time",
                  "displayName":"compile-time",
                  "raw_data_units":"",
                  "post_processing_units":"ms"
                }
              ]
            }
          ]
        }
      ]
    }
  ]
}
