{
  "analysisMetricMetadataModels":[
    {
      "analysisMetricGroup": "cpu",
      "analysisMetricModels": [
        {
          "analysisMetricName": "cpu_combined",
          "unit": "",
          "isCorrelated": false
        },
        {
          "analysisMetricName": "cpu_system",
          "unit": "mb",
          "isCorrelated": false
        },
        {
          "analysisMetricName": "cpu_idle",
          "unit": "",
          "isCorrelated": false
        },
        {
          "analysisMetricName": "cpu_user",
          "unit": "",
          "isCorrelated": false
        },
        {
          "analysisMetricName": "cpu_iowait",
          "unit": "",
          "isCorrelated": false
        },
        {
          "analysisMetricName": "cpu_irq",
          "unit": "",
          "isCorrelated": false
        },
        {
          "analysisMetricName": "cpu_nice",
          "unit": "",
          "isCorrelated": false
        },
        {
          "analysisMetricName": "cpu_softirq",
          "unit": "",
          "isCorrelated": false
        },
        {
          "analysisMetricName": "cpu_stolen",
          "unit": "",
          "isCorrelated": false
        },
        {
          "analysisMetricName": "cpu_per_process_percent",
          "unit": "",
          "isCorrelated": false
        },
        {
          "analysisMetricName": "cpu_per_process_total",
          "unit": "",
          "isCorrelated": false
        },
        {
          "analysisMetricName": "cpu_per_process_system",
          "unit": "",
          "isCorrelated": false
        },
        {
          "analysisMetricName": "cpu_per_process_user",
          "unit": "",
          "isCorrelated": false
        },
        {
          "analysisMetricName": "cpu_contest_manager_service",
          "unit": "%",
          "isCorrelated": true
        },
        {
          "analysisMetricName": "cpu_leaderboard_service",
          "unit": "%",
          "isCorrelated": true
        }
      ]
    },
    {
      "analysisMetricGroup": "memory",
      "analysisMetricModels": [
        {
          "analysisMetricName": "memory_usedperc",
          "unit": "",
          "isCorrelated": false
        },
        {
          "analysisMetricName": "memory_freeperc",
          "unit": "",
          "isCorrelated": false
        },
        {
          "analysisMetricName": "memory_used",
          "unit": "",
          "isCorrelated": false
        },
        {
          "analysisMetricName": "memory_free",
          "unit": "",
          "isCorrelated": false
        },
        {
          "analysisMetricName": "memory_actualfree",
          "unit": "",
          "isCorrelated": false
        },
        {
          "analysisMetricName": "memory_actualused",
          "unit": "",
          "isCorrelated": false
        },
        {
          "analysisMetricName": "memory_ram",
          "unit": "",
          "isCorrelated": false
        },
        {
          "analysisMetricName": "memory_total",
          "unit": "",
          "isCorrelated": false
        },
        {
          "analysisMetricName": "memory_per_process_resident",
          "unit": "",
          "isCorrelated": false
        },
        {
          "analysisMetricName": "memory_per_process_virtual",
          "unit": "",
          "isCorrelated": false
        },
        {
          "analysisMetricName": "memory_per_process_shared",
          "unit": "",
          "isCorrelated": false
        },
        {
          "analysisMetricName": "memory_per_process_pagefaults",
          "unit": "",
          "isCorrelated": false
        },
        {
          "analysisMetricName": "memory_per_process_majorfaults",
          "unit": "",
          "isCorrelated": false
        },
        {
          "analysisMetricName": "memory_per_process_minorfaults",
          "unit": "",
          "isCorrelated": false
        },
        {
          "analysisMetricName": "memory_contest_manager_service",
          "unit": "Mb",
          "isCorrelated": true
        },
        {
          "analysisMetricName": "memory_leaderboard_service",
          "unit": "Mb",
          "isCorrelated": true
        }
      ]
    },

    {
      "analysisMetricGroup": "disks",
      "analysisMetricModels": [
        {
          "analysisMetricName": "disks_queue",
          "unit": "",
          "isCorrelated": false
        },
        {
          "analysisMetricName": "disks_reads",
          "unit": "",
          "isCorrelated": false
        },
        {
          "analysisMetricName": "disks_writes",
          "unit": "",
          "isCorrelated": false
        },
        {
          "analysisMetricName": "disks_readbytes",
          "unit": "",
          "isCorrelated": false
        },
        {
          "analysisMetricName": "disks_writebytes",
          "unit": "",
          "isCorrelated": false
        },
        {
          "analysisMetricName": "disks_i_o_available",
          "unit": "",
          "isCorrelated": false
        },
        {
          "analysisMetricName": "disks_service",
          "unit": "",
          "isCorrelated": false
        },
        {
          "analysisMetricName": "disks_i_o_files",
          "unit": "",
          "isCorrelated": false
        },
        {
          "analysisMetricName": "disks_free",
          "unit": "",
          "isCorrelated": false
        },
        {
          "analysisMetricName": "disks_freefiles",
          "unit": "",
          "isCorrelated": false
        },
        {
          "analysisMetricName": "disks_total",
          "unit": "",
          "isCorrelated": false
        },
        {
          "analysisMetricName": "disks_useperc",
          "unit": "",
          "isCorrelated": false
        },
        {
          "analysisMetricName": "disks_used",
          "unit": "",
          "isCorrelated": false
        }
      ]
    },
    {
      "analysisMetricGroup": "swap",
      "analysisMetricModels": [
        {
          "analysisMetricName": "swap_free",
          "unit": "",
          "isCorrelated": false
        },
        {
          "analysisMetricName": "swap_pagein",
          "unit": "",
          "isCorrelated": false
        },
        {
          "analysisMetricName": "swap_pageout",
          "unit": "",
          "isCorrelated": false
        },
        {
          "analysisMetricName": "swap_total",
          "unit": "",
          "isCorrelated": false
        },
        {
          "analysisMetricName": "swap_used",
          "unit": "",
          "isCorrelated": false
        }
      ]
    },
    {
      "analysisMetricGroup": "network",
      "analysisMetricModels": [
        {
          "analysisMetricName": "network_bytesrecv",
          "unit": "",
          "isCorrelated": false
        },
        {
          "analysisMetricName": "network_bytessent",
          "unit": "",
          "isCorrelated": false
        },
        {
          "analysisMetricName": "network_rx",
          "unit": "",
          "isCorrelated": false
        },
        {
          "analysisMetricName": "network_tx",
          "unit": "",
          "isCorrelated": false
        },
        {
          "analysisMetricName": "network_used",
          "unit": "",
          "isCorrelated": false
        },
        {
          "analysisMetricName": "network_speed",
          "unit": "",
          "isCorrelated": false
        },
        {
          "analysisMetricName": "network_rxdrops",
          "unit": "",
          "isCorrelated": false
        },
        {
          "analysisMetricName": "network_rxerr",
          "unit": "",
          "isCorrelated": false
        },
        {
          "analysisMetricName": "network_rxframe",
          "unit": "",
          "isCorrelated": false
        },
        {
          "analysisMetricName": "network_rxoverruns",
          "unit": "",
          "isCorrelated": false
        },
        {
          "analysisMetricName": "network_txcarrier",
          "unit": "",
          "isCorrelated": false
        },
        {
          "analysisMetricName": "network_txcollisions",
          "unit": "",
          "isCorrelated": false
        },
        {
          "analysisMetricName": "network_txdrops",
          "unit": "",
          "isCorrelated": false
        },
        {
          "analysisMetricName": "network_txerr",
          "unit": "",
          "isCorrelated": false
        },
        {
          "analysisMetricName": "network_txoverruns",
          "unit": "",
          "isCorrelated": false
        },
        {
          "analysisMetricName": "network_Both_services_sent",
          "unit": "Mb",
          "isCorrelated": true
        }
      ]
    },

    {
      "analysisMetricGroup": "tcp",
      "analysisMetricModels": [
        {
          "analysisMetricName": "tcp_estab",
          "unit": "",
          "isCorrelated": false
        },
        {
          "analysisMetricName": "tcp_time_wait",
          "unit": "",
          "isCorrelated": false
        },
        {
          "analysisMetricName": "tcp_close_wait",
          "unit": "",
          "isCorrelated": false
        },
        {
          "analysisMetricName": "tcp_bound",
          "unit": "",
          "isCorrelated": false
        },
        {
          "analysisMetricName": "tcp_close",
          "unit": "",
          "isCorrelated": false
        },
        {
          "analysisMetricName": "tcp_closing",
          "unit": "",
          "isCorrelated": false
        },
        {
          "analysisMetricName": "tcp_fin_wait1",
          "unit": "",
          "isCorrelated": false
        },
        {
          "analysisMetricName": "tcp_fin_wait2",
          "unit": "",
          "isCorrelated": false
        },
        {
          "analysisMetricName": "tcp_idle",
          "unit": "",
          "isCorrelated": false
        },
        {
          "analysisMetricName": "tcp_inbound",
          "unit": "",
          "isCorrelated": false
        },
        {
          "analysisMetricName": "tcp_last_ack",
          "unit": "",
          "isCorrelated": false
        },
        {
          "analysisMetricName": "tcp_listen",
          "unit": "",
          "isCorrelated": false
        },
        {
          "analysisMetricName": "tcp_outbound",
          "unit": "",
          "isCorrelated": false
        },
        {
          "analysisMetricName": "tcp_syn_recv",
          "unit": "",
          "isCorrelated": false
        }
      ]
    },
    {
      "analysisMetricGroup": "jmx",
      "analysisMetricModels": [
        {
          "analysisMetricName": "jmx_gc_time",
          "unit": "",
          "isCorrelated": false
        },
        {
          "analysisMetricName": "jmx_memory_usage",
          "unit": "",
          "isCorrelated": false
        },
        {
          "analysisMetricName": "jmx_memory_committed",
          "unit": "",
          "isCorrelated": false
        },
        {
          "analysisMetricName": "jmx_memorypool_usage",
          "unit": "",
          "isCorrelated": false
        },
        {
          "analysisMetricName": "jmx_memorypool_committed",
          "unit": "",
          "isCorrelated": false
        },
        {
          "analysisMetricName": "jmx_class_count",
          "unit": "",
          "isCorrelated": false
        },
        {
          "analysisMetricName": "jmx_compile_time",
          "unit": "",
          "isCorrelated": false
        }
      ]
    }
  ]
}
