{
  "analyses": [
    {
      "name": "jmeter_insights",
      "description": "Jmeter Insights Analysis",
      "analysisCategory": 1,
      "isEnabled": true,
      "microAnalyses": [
        {
          "executionOrderId": 1,
          "name": "rcos",
          "insightCategory": 1,
          "description": "Root Cause of Spikes",
          "products": [
            4
          ],
          "productEditions": [
            1,
            2
          ],
          "addOn": 2,
          "isRequired": true,
          "isEnabled": true,
          "metrics": [
            {
              "normalizedName": "cpu---combined",
              "names": [
                "CPU combined"
              ]
            }
          ],
          "optionalMetrics": [
            {
              "normalizedName": "swap---used",
              "names": [
                "Swap used"
              ]
            },
            {
              "normalizedName": "swap---total",
              "names": [
                "Swap total"
              ]
            },
            {
              "normalizedName": "jmx---gc-time",
              "names": [
                "JMX gc-time"
              ]
            },
            {
              "normalizedName": "jmx---memory-usage",
              "names": [
                "JMX memory-usage"
              ]
            },
            {
              "normalizedName": "memory---used",
              "names": [
                "Memory used"
              ]
            },
            {
              "normalizedName": "disksio---reads",
              "names": [
                "disk i/o reads"
              ]
            },
            {
              "normalizedName": "disksio---writes",
              "names": [
                "disk i/o writes"
              ]
            },
            {
              "normalizedName": "networkio---bytesrecv",
              "names": [
                "network i/o bytesrecv"
              ]
            },
            {
              "normalizedName": "networkio---bytessent",
              "names": [
                "network i/o bytesent"
              ]
            },
            {
              "normalizedName": "disksio---used",
              "names": [
                "disks i/o used"
              ]
            },
            {
              "normalizedName": "memory---usedperc",
              "names": [
                "memory usedperc"
              ]
            }
          ]
        },
        {
          "executionOrderId": 2,
          "name": "cpu_spike",
          "insightCategory": 1,
          "description": "CPU Spike",
          "products": [
            4
          ],
          "productEditions": [
            1,
            2
          ],
          "addOn": 2,
          "isRequired": true,
          "isEnabled": true,
          "metrics": [
            {
              "normalizedName": "cpu---combined",
              "names": [
                "CPU combined"
              ]
            }
          ],
          "optionalMetrics": [
            {
              "normalizedName": "response---latency",
              "names": [
                "Latency"
              ]
            },
            {
              "normalizedName": "response---elapsed",
              "names": [
                "Elapsed"
              ]
            }
          ]
        },
        {
          "executionOrderId": 3,
          "name": "wmp",
          "insightCategory": 1,
          "description": "Workload Memory Pressure",
          "products": [
            4
          ],
          "productEditions": [
            1,
            2
          ],
          "addOn": 2,
          "isRequired": true,
          "isEnabled": true,
          "metrics": [
            {
              "normalizedName": "jmx---gc-time",
              "names": [
                "JMX gc time"
              ]
            },
            {
              "normalizedName": "jmx---memory-usage",
              "names": [
                "JMX memory usage"
              ]
            },
            {
              "normalizedName": "jmx---memory-committed",
              "names": [
                "JMX memory"
              ]
            },
            {
              "normalizedName": "response---latency",
              "names": [
                "Latency"
              ]
            },
            {
              "normalizedName": "url",
              "names": [
                "Elapsed"
              ]
            }
          ]
        },
        {
          "executionOrderId": 4,
          "name": "dral",
          "insightCategory": 1,
          "description": "Determine Resources Affecting Latency",
          "products": [
            4
          ],
          "productEditions": [
            1,
            2
          ],
          "addOn": 2,
          "isRequired": true,
          "isEnabled": true,
          "metrics": [
            {
              "normalizedName": "response---latency",
              "names": [
                "Latency"
              ]
            },
            {
              "normalizedName": "response---elapsed",
              "names": [
                "Elapsed"
              ]
            },
            {
              "normalizedName": "response---samplecount",
              "names": [
                "Sample Count"
              ]
            },
            {
              "normalizedName": "response---errorcount",
              "names": [
                "Error Count"
              ]
            }
          ],
          "optionalMetrics": [
            {
              "normalizedName": "cpu---combined",
              "names": [
                "Cpu Combined"
              ]
            },
            {
              "normalizedName": "disksio---reads",
              "names": [
                "disk i/o reads"
              ]
            },
            {
              "normalizedName": "disksio---writes",
              "names": [
                "disk i/o writes"
              ]
            },
            {
              "normalizedName": "networkio---bytesrecv",
              "names": [
                "network i/o bytesrecv"
              ]
            },
            {
              "normalizedName": "networkio---bytessent",
              "names": [
                "network i/o bytesent"
              ]
            },
            {
              "normalizedName": "jmx---memory-usage",
              "names": [
                "JMX memory usage"
              ]
            }
          ]
        }
      ]
    },
    {
      "name": "mir",
      "description": "Metric Influence Ranking Analysis",
      "analysisCategory": 1,
      "isEnabled": true,
      "microAnalyses": [],
      "metrics": [
        {
          "normalizedName": "response---latency",
          "names": [
            "Request requests"
          ]
        }
      ],
      "optionalMetrics": [
        {
          "normalizedName": "cpu---combined",
          "names": [
            "cpu combined"
          ]
        },
        {
          "normalizedName": "disksio---reads",
          "names": [
            "disk i/o reads"
          ]
        },
        {
          "normalizedName": "disksio---writes",
          "names": [
            "disk i/o writes"
          ]
        },
        {
          "normalizedName": "networkio---bytesrecv",
          "names": [
            "network i/o bytesrecv"
          ]
        },
        {
          "normalizedName": "networkio---bytessent",
          "names": [
            "network i/o bytesent"
          ]
        },
        {
          "normalizedName": "jmx---memory-usage",
          "names": [
            "jmx memory-usage"
          ]
        }
      ]
    },
    {
      "name": "boundary_estimation_qos",
      "description": "Metric Influence Ranking on Workload",
      "analysisCategory": 1,
      "isEnabled": true,
      "microAnalyses": [],
      "metrics": [
        {
          "normalizedName": "response---samplecount",
          "names": [
            "Response samplecount"
          ]
        }
      ],
      "optionalMetrics": [
        {
          "normalizedName": "response---latency",
          "names": [
            "Response latency"
          ]
        }
      ]
    }
  ]
}