{
  "asklyticsRestInfos":[
    {
      "contextPath": "/ui-data-service/v1.0/analytics/scenario/sdata",
      "controllerName" : "ScenarioController",
      "actionName" : "getStaticData",
      "restParameterInfos":[
        {
          "paramName" : "s",
          "paramValueExpectType" : "String",
          "required" : true,
          "requestParamaterType" : "request_param"

        },
        {
          "paramName" : "dname",
          "paramValueExpectType" : "String",
          "required" : true,
          "requestParamaterType" : "request_param"

        },
        {
          "paramName" : "stage",
          "paramValueExpectType" : "String",
          "required" : true,
          "requestParamaterType" : "request_param"

        }
      ],
      "requestData" : null,
      "restOperation" : "get"
    },
    {
      "contextPath": "/ui-data-service/v1.0/admin/product/subscription/userUsage",
      "controllerName" : "AdminProductController",
      "actionName" : "userUsage",
      "restParameterInfos":[],
      "requestData" : null,
      "restOperation" : "get"
    },
    {
      "contextPath": "/ui-data-service/v1.0/admin/product/subscriptions",
      "controllerName" : "AdminProductController",
      "actionName" : "subscription",
      "restParameterInfos":[],
      "requestData" : null,
      "restOperation" : "get"
    },
    {
      "contextPath": "/ui-data-service/v1.0/admin/api/users",
      "controllerName" : "AdminUserController",
      "actionName" : "getUsers",
      "restParameterInfos":[],
      "requestData" : null,
      "restOperation" : "get"
    },
    {
      "contextPath": "/ui-data-service/v1.0/admin/api/user",
      "controllerName" : "AdminUserController",
      "actionName" : "getUsers",
      "restParameterInfos":[
        {
        "paramName" : "uid",
        "paramValueExpectType" : "Integer",
        "required" : true,
        "requestParamaterType" : "url_param"

        }
      ],
      "requestData" : null,
      "restOperation" : "get"
    },
    {
      "contextPath": "/ui-data-service/v1.0/admin/api/user",
      "controllerName" : "AdminUserController",
      "actionName" : "deleteUser",
      "restParameterInfos":[
        {
          "paramName" : "uid",
          "paramValueExpectType" : "Integer",
          "required" : true,
          "requestParamaterType" : "url_param"

        }
      ],
      "requestData" : null,
      "restOperation" : "delete"
    },
    {
      "contextPath": "/ui-data-service/v1.0/admin/api/user",
      "controllerName" : "AdminUserController",
      "actionName" : "createUser",
      "requestData" : null,
      "restOperation" : "post"
    },
    {
      "contextPath": "/ui-data-service/v1.0/admin/api/user",
      "controllerName" : "AdminUserController",
      "actionName" : "updateUser",
      "requestData" : null,
      "restOperation" : "put"
    },
    {
      "contextPath": "/ui-data-service/v1.0/admin/api/activate/user/",
      "controllerName" : "AdminUserController",
      "actionName" : "activateUser",
      "restParameterInfos":[
        {
          "paramName" : "uid",
          "paramValueExpectType" : "Integer",
          "required" : true,
          "requestParamaterType" : "url_param"

        }
      ],
      "requestData" : null,
      "restOperation" : "delete"
    },
    {
      "contextPath": "/ui-data-service/v1.0/admin/api/deactivate/user/",
      "controllerName" : "AdminUserController",
      "actionName" : "deactivateUser",
      "restParameterInfos":[
        {
          "paramName" : "uid",
          "paramValueExpectType" : "Integer",
          "required" : true,
          "requestParamaterType" : "url_param"

        }
      ],
      "requestData" : null,
      "restOperation" : "delete"
    },
    {
      "contextPath": "/ui-data-service/v1.0/admin/api/user/me",
      "controllerName" : "AdminUserController",
      "actionName" : "getLoggedInUserInfo",
      "restParameterInfos":[],
      "requestData" : null,
      "restOperation" : "get"
    },
    {
      "contextPath": "/ui-data-service/v1.0/converse",
      "controllerName" : "ConversationController",
      "actionName" : "getConversation",
      "restParameterInfos":[
        {
          "paramName" : "entityTypeId",
          "paramValueExpectType" : "Integer",
          "required" : true,
          "requestParamaterType" : "request_param"

        },
        {
          "paramName" : "entityId",
          "paramValueExpectType" : "Integer",
          "required" : false,
          "requestParamaterType" : "request_param"
        }
      ],
      "requestData" : null,
      "restOperation" : "get"
    },
    {
      "contextPath": "/ui-data-service/v1.0/converse",
      "controllerName" : "ConversationController",
      "actionName" : "getConversationById",
      "restParameterInfos":[
        {
          "paramName" : "conversationId",
          "paramValueExpectType" : "Integer",
          "required" : true,
          "requestParamaterType" : "url_param"

        }
      ],
      "requestData" : null,
      "restOperation" : "get"
    },
    {
      "contextPath": "/ui-data-service/v1.0/converse",
      "controllerName" : "ConversationController",
      "actionName" : "createConversation",
      "restParameterInfos":[],
      "requestData" : null,
      "restOperation" : "post"
    },
    {
      "contextPath": "/ui-data-service/v1.0/converse",
      "controllerName" : "ConversationController",
      "actionName" : "deleteConversation",
      "restParameterInfos":[
        {
          "paramName" : "conversationId",
          "paramValueExpectType" : "Integer",
          "required" : true,
          "requestParamaterType" : "url_param"

        }
      ],
      "requestData" : null,
      "restOperation" : "delete"
    },
    {
      "contextPath": "/ui-data-service/v1.0/converse/comment",
      "controllerName" : "ConversationController",
      "actionName" : "createComment",
      "restParameterInfos":[],
      "requestData" : null,
      "restOperation" : "post"
    },
    {
      "contextPath": "/ui-data-service/v1.0/converse/comment",
      "controllerName" : "ConversationController",
      "actionName" : "updateComment",
      "restParameterInfos":[],
      "requestData" : null,
      "restOperation" : "put"
    },
    {
      "contextPath": "/ui-data-service/v1.0/converse/comment",
      "controllerName" : "ConversationController",
      "actionName" : "deleteComment",
      "restParameterInfos":[
        {
          "paramName" : "commentId",
          "paramValueExpectType" : "Integer",
          "required" : true,
          "requestParamaterType" : "url_param"

        }
      ],
      "requestData" : null,
      "restOperation" : "delete"
    },
    {
      "contextPath": "/ui-data-service/v1.0/analytics/entity/permission",
      "controllerName" : "EntityPermissionController",
      "actionName" : "getEntityPermission",
      "restParameterInfos":[
        {
          "paramName" : "s",
          "paramValueExpectType" : "Integer",
          "required" : false,
          "requestParamaterType" : "request_param"

        },
        {
          "paramName" : "a",
          "paramValueExpectType" : "Integer",
          "required" : false,
          "requestParamaterType" : "request_param"

        }
      ],
      "requestData" : null,
      "restOperation" : "delete"
    },
    {
      "contextPath": "/ui-data-service/v1.0/notification/flags/user",
      "controllerName" : "FlagController",
      "actionName" : "getUserFlags",
      "restParameterInfos":[],
      "requestData" : null,
      "restOperation" : "get"
    },
    {
      "contextPath": "/ui-data-service/v1.0/notification/flags/user",
      "controllerName" : "FlagController",
      "actionName" : "getUserFlags",
      "restParameterInfos":[],
      "requestData" : null,
      "restOperation" : "get"
    },
    {
      "contextPath": "/ui-data-service/v1.0/notification/flags/user",
      "controllerName" : "FlagController",
      "actionName" : "deleteUserFlag",
      "restParameterInfos":[
        {
          "paramName" : "name",
          "paramValueExpectType" : "String",
          "required" : false,
          "requestParamaterType" : "request_param"

        }
      ],
      "requestData" : null,
      "restOperation" : "delete"
    },
    {
      "contextPath": "/ui-data-service/v1.0/notification/flags/customer",
      "controllerName" : "FlagController",
      "actionName" : "getTenantFlags",
      "restParameterInfos":[],
      "requestData" : null,
      "restOperation" : "get"
    },
    {
      "contextPath": "/ui-data-service/v1.0/notification/flags/customer",
      "controllerName" : "FlagController",
      "actionName" : "deleteTenantFlag",
      "restParameterInfos":[
        {
          "paramName" : "name",
          "paramValueExpectType" : "String",
          "required" : false,
          "requestParamaterType" : "request_param"

        }
      ],
      "requestData" : null,
      "restOperation" : "delete"
    },
    {
      "contextPath": "/ui-data-service/v1.0/common/action",
      "controllerName" : "GenericRequestController",
      "actionName" : "receiveGenericRequest",
      "restParameterInfos":[
        {
          "paramName" : "actionType",
          "paramValue" : "",
          "paramValueExpectType" : "String",
          "paramValueGivenType" : "",
          "required" : false,
          "requestParamaterType" : "url_param"

        }
      ],
      "requestData" : null,
      "restOperation" : "get"
    },
    {
      "contextPath": "/ui-data-service/v1.0/product",
      "controllerName" : "ProductController",
      "actionName" : "getProductList",
      "restParameterInfos":[],
      "requestData" : null,
      "restOperation" : "get"
    },
    {
      "contextPath": "/ui-data-service/v1.0/product",
      "controllerName" : "ProductController",
      "actionName" : "getProductById",
      "restParameterInfos":[
        {
          "paramName" : "uid",
          "paramValueExpectType" : "Integer",
          "required" : false,
          "requestParamaterType" : "url_param"

        }
      ],
      "requestData" : null,
      "restOperation" : "get"
    },
    {
      "contextPath": "/ui-data-service/v1.0/product/edition",
      "controllerName" : "ProductController",
      "actionName" : "getProductBgetProductEditionListyId",
      "restParameterInfos":[],
      "requestData" : null,
      "restOperation" : "get"
    },
    {
      "contextPath": "/ui-data-service/v1.0/product/edition",
      "controllerName" : "ProductController",
      "actionName" : "getProductEditionById",
      "restParameterInfos":[
        {
          "paramName" : "uid",
          "paramValueExpectType" : "Integer",
          "required" : false,
          "requestParamaterType" : "url_param"

        }
      ],
      "requestData" : null,
      "restOperation" : "get"
    },
    {
      "contextPath": "/ui-data-service/v1.0/product/pricing",
      "controllerName" : "ProductController",
      "actionName" : "pricing",
      "restParameterInfos":[],
      "requestData" : null,
      "restOperation" : "get"
    },
    {
      "contextPath": "/ui-data-service/v1.0/product/pricing/",
      "controllerName" : "ProductController",
      "actionName" : "pricingForProduct",
      "restParameterInfos":[
        {
          "paramName" : "productId",
          "paramValueExpectType" : "Integer",
          "required" : true,
          "requestParamaterType" : "url_param"

        },
        {
          "paramName" : "pricingVersion",
          "paramValueExpectType" : "String",
          "required" : false,
          "requestParamaterType" : "request_param"

        },
        {
          "paramName" : "jsonVersion",
          "paramValueExpectType" : "String",
          "required" : false,
          "requestParamaterType" : "request_param"

        }
      ],
      "requestData" : null,
      "restOperation" : "get"
    },
    {
      "contextPath": "/ui-data-service/v1.0/product/purchase",
      "controllerName" : "ProductController",
      "actionName" : "purchase",
      "restParameterInfos":[
        {
          "paramName" : "product",
          "paramValueExpectType" : "String",
          "required" : true,
          "requestParamaterType" : "request_param"

        },
        {
          "paramName" : "edition",
          "paramValueExpectType" : "String",
          "required" : true,
          "requestParamaterType" : "request_param"

        },
        {
          "paramName" : "hours",
          "paramValueExpectType" : "Integer",
          "required" : true,
          "requestParamaterType" : "request_param"

        },
        {
          "paramName" : "upload",
          "paramValueExpectType" : "Integer",
          "required" : true,
          "requestParamaterType" : "request_param"

        },
        {
          "paramName" : "team",
          "paramValueExpectType" : "Integer",
          "required" : true,
          "requestParamaterType" : "request_param"

        },
        {
          "paramName" : "retention",
          "paramValue" : "",
          "paramValueExpectType" : "Integer",
          "paramValueGivenType" : "",
          "required" : true,
          "requestParamaterType" : "request_param"

        },
        {
          "paramName" : "annual",
          "paramValueExpectType" : "Boolean",
          "required" : true,
          "requestParamaterType" : "request_param"

        }
      ],
      "requestData" : null,
      "restOperation" : "post"
    },
    {
      "contextPath": "/ui-data-service/v1.0/analytics/scenario/sdata",
      "controllerName" : "ScenarioController",
      "actionName" : "getStaticData",
      "restParameterInfos":[
        {
          "paramName" : "s",
          "paramValueExpectType" : "Integer",
          "required" : true,
          "requestParamaterType" : "request_param"

        },
        {
          "paramName" : "dname",
          "paramValueExpectType" : "String",
          "required" : true,
          "requestParamaterType" : "request_param"

        },
        {
          "paramName" : "stage",
          "paramValueExpectType" : "String",
          "required" : false,
          "requestParamaterType" : "request_param"

        }
      ],
      "requestData" : null,
      "restOperation" : "get"
    },
    {
      "contextPath": "/ui-data-service/v1.0/product/pricing/{productId}/{editionId}",
      "controllerName" : "ProductController",
      "actionName" : "pricingForProductEdition",
      "restParameterInfos":[
        {
          "paramName" : "productId",
          "paramValueExpectType" : "Integer",
          "required" : true,
          "requestParamaterType" : "url_param"

        },
        {
          "paramName" : "editionId",
          "paramValueExpectType" : "Integer",
          "required" : true,
          "requestParamaterType" : "url_param"

        },
        {
          "paramName" : "pricingVersion",
          "paramValueExpectType" : "String",
          "required" : false,
          "requestParamaterType" : "request_param"

        },
        {
          "paramName" : "jsonVersion",
          "paramValueExpectType" : "String",
          "required" : false,
          "requestParamaterType" : "request_param"

        }
      ],
      "requestData" : null,
      "restOperation" : "get"
    }
  ]
}