[
  {
    "targets": [ "http://10.138.223.38:80/status" ],
    "labels": {
      "instance": "intg1-ext-proxy",
      "appName": "intg1-ext-proxy"
    }
  },
  {
    "targets": [ "http://10.138.119.145:80" ],
    "labels": {
      "instance": "intg1-int-proxy",
      "appName": "intg1-int-proxy"
    }
  }

]

