[
  {
    "targets": [ "http://10.136.70.242:80" ],
    "labels": {
      "instance": "demo-ext-proxy-app-layer",
      "appName": "demo-ext-proxy-app-layer"
    }
  },
  {
    "targets": [ "http://10.136.70.242:80" ],
    "labels": {
      "instance": "demo-int-proxy-app-layer",
      "appName": "demo-int-proxy-app-layer"
    }
  }

]
